[gd_scene load_steps=2 format=2]

[ext_resource path="res://world/background/bg-starts.gd" type="Script" id=2]

[node name="bg-starts" type="Node2D"]
script = ExtResource( 2 )

[node name="color-rect" type="ColorRect" parent="."]
margin_right = 1024.0
margin_bottom = 600.0
color = Color( 0.168627, 0.133333, 0.180392, 1 )

[node name="timers" type="Node2D" parent="."]

[node name="add" type="Timer" parent="timers"]

[node name="delete" type="Timer" parent="timers"]

[node name="layer1" type="Node2D" parent="."]

[node name="layer2" type="Node2D" parent="."]

[node name="layer3" type="Node2D" parent="."]

[connection signal="timeout" from="timers/add" to="." method="_on_timeradd_timeout"]
[connection signal="timeout" from="timers/delete" to="." method="_on_delete_timeout"]
